S4/adder/src/adder.vcd
$date
  Thu Oct 12 17:39:32 2017
$end
$version
  GHDL v0
$end
$timescale
  1 fs
$end
$var reg 4 ! i0[3:0] $end
$var reg 4 " i1[3:0] $end
$var reg 4 # q[3:0] $end
$var reg 1 $ ovf $end
$scope module add1 $end
$var reg 4 % i0[3:0] $end
$var reg 4 & i1[3:0] $end
$var reg 4 ' q[3:0] $end
$var reg 1 ( ovf $end
$var reg 5 ) add[4:0] $end
$upscope $end
$enddefinitions $end
#0
b0000 !
b0000 "
b0000 #
0$
b0000 %
b0000 &
b0000 '
0(
b00000 )
#5000000
b0001 "
b0001 #
b0001 &
b0001 '
b00001 )
#10000000
b0010 "
b0010 #
b0010 &
b0010 '
b00010 )
#15000000
b0011 "
b0011 #
b0011 &
b0011 '
b00011 )
#20000000
b0100 "
b0100 #
b0100 &
b0100 '
b00100 )
#25000000
b0101 "
b0101 #
b0101 &
b0101 '
b00101 )
#30000000
b0110 "
b0110 #
b0110 &
b0110 '
b00110 )
#35000000
b0111 "
b0111 #
b0111 &
b0111 '
b00111 )
#40000000
b1000 "
b1000 #
b1000 &
b1000 '
b01000 )
#45000000
b1001 "
b1001 #
b1001 &
b1001 '
b01001 )
#50000000
b1010 "
b1010 #
b1010 &
b1010 '
b01010 )
#55000000
b1011 "
b1011 #
b1011 &
b1011 '
b01011 )
#60000000
b1100 "
b1100 #
b1100 &
b1100 '
b01100 )
#65000000
b1101 "
b1101 #
b1101 &
b1101 '
b01101 )
#70000000
b1110 "
b1110 #
b1110 &
b1110 '
b01110 )
#75000000
b1111 "
b1111 #
b1111 &
b1111 '
b01111 )
#80000000
b0001 !
b0000 "
b0001 #
b0001 %
b0000 &
b0001 '
b00001 )
#85000000
b0001 "
b0010 #
b0001 &
b0010 '
b00010 )
#90000000
b0010 "
b0011 #
b0010 &
b0011 '
b00011 )
#95000000
b0011 "
b0100 #
b0011 &
b0100 '
b00100 )
#100000000
b0100 "
b0101 #
b0100 &
b0101 '
b00101 )
#105000000
b0101 "
b0110 #
b0101 &
b0110 '
b00110 )
#110000000
b0110 "
b0111 #
b0110 &
b0111 '
b00111 )
#115000000
b0111 "
b1000 #
b0111 &
b1000 '
b01000 )
#120000000
b1000 "
b1001 #
b1000 &
b1001 '
b01001 )
#125000000
b1001 "
b1010 #
b1001 &
b1010 '
b01010 )
#130000000
b1010 "
b1011 #
b1010 &
b1011 '
b01011 )
#135000000
b1011 "
b1100 #
b1011 &
b1100 '
b01100 )
#140000000
b1100 "
b1101 #
b1100 &
b1101 '
b01101 )
#145000000
b1101 "
b1110 #
b1101 &
b1110 '
b01110 )
#150000000
b1110 "
b1111 #
b1110 &
b1111 '
b01111 )
#155000000
b1111 "
b0000 #
1$
b1111 &
b0000 '
1(
b10000 )
#160000000
b0010 !
b0000 "
b0010 #
0$
b0010 %
b0000 &
b0010 '
0(
b00010 )
#165000000
b0001 "
b0011 #
b0001 &
b0011 '
b00011 )
#170000000
b0010 "
b0100 #
b0010 &
b0100 '
b00100 )
#175000000
b0011 "
b0101 #
b0011 &
b0101 '
b00101 )
#180000000
b0100 "
b0110 #
b0100 &
b0110 '
b00110 )
#185000000
b0101 "
b0111 #
b0101 &
b0111 '
b00111 )
#190000000
b0110 "
b1000 #
b0110 &
b1000 '
b01000 )
#195000000
b0111 "
b1001 #
b0111 &
b1001 '
b01001 )
#200000000
b1000 "
b1010 #
b1000 &
b1010 '
b01010 )
#205000000
b1001 "
b1011 #
b1001 &
b1011 '
b01011 )
#210000000
b1010 "
b1100 #
b1010 &
b1100 '
b01100 )
#215000000
b1011 "
b1101 #
b1011 &
b1101 '
b01101 )
#220000000
b1100 "
b1110 #
b1100 &
b1110 '
b01110 )
#225000000
b1101 "
b1111 #
b1101 &
b1111 '
b01111 )
#230000000
b1110 "
b0000 #
1$
b1110 &
b0000 '
1(
b10000 )
#235000000
b1111 "
b0001 #
b1111 &
b0001 '
b10001 )
#240000000
b0011 !
b0000 "
b0011 #
0$
b0011 %
b0000 &
b0011 '
0(
b00011 )
#245000000
b0001 "
b0100 #
b0001 &
b0100 '
b00100 )
#250000000
b0010 "
b0101 #
b0010 &
b0101 '
b00101 )
#255000000
b0011 "
b0110 #
b0011 &
b0110 '
b00110 )
#260000000
b0100 "
b0111 #
b0100 &
b0111 '
b00111 )
#265000000
b0101 "
b1000 #
b0101 &
b1000 '
b01000 )
#270000000
b0110 "
b1001 #
b0110 &
b1001 '
b01001 )
#275000000
b0111 "
b1010 #
b0111 &
b1010 '
b01010 )
#280000000
b1000 "
b1011 #
b1000 &
b1011 '
b01011 )
#285000000
b1001 "
b1100 #
b1001 &
b1100 '
b01100 )
#290000000
b1010 "
b1101 #
b1010 &
b1101 '
b01101 )
#295000000
b1011 "
b1110 #
b1011 &
b1110 '
b01110 )
#300000000
b1100 "
b1111 #
b1100 &
b1111 '
b01111 )
#305000000
b1101 "
b0000 #
1$
b1101 &
b0000 '
1(
b10000 )
#310000000
b1110 "
b0001 #
b1110 &
b0001 '
b10001 )
#315000000
b1111 "
b0010 #
b1111 &
b0010 '
b10010 )
#320000000
b0100 !
b0000 "
b0100 #
0$
b0100 %
b0000 &
b0100 '
0(
b00100 )
#325000000
b0001 "
b0101 #
b0001 &
b0101 '
b00101 )
#330000000
b0010 "
b0110 #
b0010 &
b0110 '
b00110 )
#335000000
b0011 "
b0111 #
b0011 &
b0111 '
b00111 )
#340000000
b0100 "
b1000 #
b0100 &
b1000 '
b01000 )
#345000000
b0101 "
b1001 #
b0101 &
b1001 '
b01001 )
#350000000
b0110 "
b1010 #
b0110 &
b1010 '
b01010 )
#355000000
b0111 "
b1011 #
b0111 &
b1011 '
b01011 )
#360000000
b1000 "
b1100 #
b1000 &
b1100 '
b01100 )
#365000000
b1001 "
b1101 #
b1001 &
b1101 '
b01101 )
#370000000
b1010 "
b1110 #
b1010 &
b1110 '
b01110 )
#375000000
b1011 "
b1111 #
b1011 &
b1111 '
b01111 )
#380000000
b1100 "
b0000 #
1$
b1100 &
b0000 '
1(
b10000 )
#385000000
b1101 "
b0001 #
b1101 &
b0001 '
b10001 )
#390000000
b1110 "
b0010 #
b1110 &
b0010 '
b10010 )
#395000000
b1111 "
b0011 #
b1111 &
b0011 '
b10011 )
#400000000
b0101 !
b0000 "
b0101 #
0$
b0101 %
b0000 &
b0101 '
0(
b00101 )
#405000000
b0001 "
b0110 #
b0001 &
b0110 '
b00110 )
#410000000
b0010 "
b0111 #
b0010 &
b0111 '
b00111 )
#415000000
b0011 "
b1000 #
b0011 &
b1000 '
b01000 )
#420000000
b0100 "
b1001 #
b0100 &
b1001 '
b01001 )
#425000000
b0101 "
b1010 #
b0101 &
b1010 '
b01010 )
#430000000
b0110 "
b1011 #
b0110 &
b1011 '
b01011 )
#435000000
b0111 "
b1100 #
b0111 &
b1100 '
b01100 )
#440000000
b1000 "
b1101 #
b1000 &
b1101 '
b01101 )
#445000000
b1001 "
b1110 #
b1001 &
b1110 '
b01110 )
#450000000
b1010 "
b1111 #
b1010 &
b1111 '
b01111 )
#455000000
b1011 "
b0000 #
1$
b1011 &
b0000 '
1(
b10000 )
#460000000
b1100 "
b0001 #
b1100 &
b0001 '
b10001 )
#465000000
b1101 "
b0010 #
b1101 &
b0010 '
b10010 )
#470000000
b1110 "
b0011 #
b1110 &
b0011 '
b10011 )
#475000000
b1111 "
b0100 #
b1111 &
b0100 '
b10100 )
#480000000
b0110 !
b0000 "
b0110 #
0$
b0110 %
b0000 &
b0110 '
0(
b00110 )
#485000000
b0001 "
b0111 #
b0001 &
b0111 '
b00111 )
#490000000
b0010 "
b1000 #
b0010 &
b1000 '
b01000 )
#495000000
b0011 "
b1001 #
b0011 &
b1001 '
b01001 )
#500000000
b0100 "
b1010 #
b0100 &
b1010 '
b01010 )
#505000000
b0101 "
b1011 #
b0101 &
b1011 '
b01011 )
#510000000
b0110 "
b1100 #
b0110 &
b1100 '
b01100 )
#515000000
b0111 "
b1101 #
b0111 &
b1101 '
b01101 )
#520000000
b1000 "
b1110 #
b1000 &
b1110 '
b01110 )
#525000000
b1001 "
b1111 #
b1001 &
b1111 '
b01111 )
#530000000
b1010 "
b0000 #
1$
b1010 &
b0000 '
1(
b10000 )
#535000000
b1011 "
b0001 #
b1011 &
b0001 '
b10001 )
#540000000
b1100 "
b0010 #
b1100 &
b0010 '
b10010 )
#545000000
b1101 "
b0011 #
b1101 &
b0011 '
b10011 )
#550000000
b1110 "
b0100 #
b1110 &
b0100 '
b10100 )
#555000000
b1111 "
b0101 #
b1111 &
b0101 '
b10101 )
#560000000
b0111 !
b0000 "
b0111 #
0$
b0111 %
b0000 &
b0111 '
0(
b00111 )
#565000000
b0001 "
b1000 #
b0001 &
b1000 '
b01000 )
#570000000
b0010 "
b1001 #
b0010 &
b1001 '
b01001 )
#575000000
b0011 "
b1010 #
b0011 &
b1010 '
b01010 )
#580000000
b0100 "
b1011 #
b0100 &
b1011 '
b01011 )
#585000000
b0101 "
b1100 #
b0101 &
b1100 '
b01100 )
#590000000
b0110 "
b1101 #
b0110 &
b1101 '
b01101 )
#595000000
b0111 "
b1110 #
b0111 &
b1110 '
b01110 )
#600000000
b1000 "
b1111 #
b1000 &
b1111 '
b01111 )
#605000000
b1001 "
b0000 #
1$
b1001 &
b0000 '
1(
b10000 )
#610000000
b1010 "
b0001 #
b1010 &
b0001 '
b10001 )
#615000000
b1011 "
b0010 #
b1011 &
b0010 '
b10010 )
#620000000
b1100 "
b0011 #
b1100 &
b0011 '
b10011 )
#625000000
b1101 "
b0100 #
b1101 &
b0100 '
b10100 )
#630000000
b1110 "
b0101 #
b1110 &
b0101 '
b10101 )
#635000000
b1111 "
b0110 #
b1111 &
b0110 '
b10110 )
#640000000
b1000 !
b0000 "
b1000 #
0$
b1000 %
b0000 &
b1000 '
0(
b01000 )
#645000000
b0001 "
b1001 #
b0001 &
b1001 '
b01001 )
#650000000
b0010 "
b1010 #
b0010 &
b1010 '
b01010 )
#655000000
b0011 "
b1011 #
b0011 &
b1011 '
b01011 )
#660000000
b0100 "
b1100 #
b0100 &
b1100 '
b01100 )
#665000000
b0101 "
b1101 #
b0101 &
b1101 '
b01101 )
#670000000
b0110 "
b1110 #
b0110 &
b1110 '
b01110 )
#675000000
b0111 "
b1111 #
b0111 &
b1111 '
b01111 )
#680000000
b1000 "
b0000 #
1$
b1000 &
b0000 '
1(
b10000 )
#685000000
b1001 "
b0001 #
b1001 &
b0001 '
b10001 )
#690000000
b1010 "
b0010 #
b1010 &
b0010 '
b10010 )
#695000000
b1011 "
b0011 #
b1011 &
b0011 '
b10011 )
#700000000
b1100 "
b0100 #
b1100 &
b0100 '
b10100 )
#705000000
b1101 "
b0101 #
b1101 &
b0101 '
b10101 )
#710000000
b1110 "
b0110 #
b1110 &
b0110 '
b10110 )
#715000000
b1111 "
b0111 #
b1111 &
b0111 '
b10111 )
#720000000
b1001 !
b0000 "
b1001 #
0$
b1001 %
b0000 &
b1001 '
0(
b01001 )
#725000000
b0001 "
b1010 #
b0001 &
b1010 '
b01010 )
#730000000
b0010 "
b1011 #
b0010 &
b1011 '
b01011 )
#735000000
b0011 "
b1100 #
b0011 &
b1100 '
b01100 )
#740000000
b0100 "
b1101 #
b0100 &
b1101 '
b01101 )
#745000000
b0101 "
b1110 #
b0101 &
b1110 '
b01110 )
#750000000
b0110 "
b1111 #
b0110 &
b1111 '
b01111 )
#755000000
b0111 "
b0000 #
1$
b0111 &
b0000 '
1(
b10000 )
#760000000
b1000 "
b0001 #
b1000 &
b0001 '
b10001 )
#765000000
b1001 "
b0010 #
b1001 &
b0010 '
b10010 )
#770000000
b1010 "
b0011 #
b1010 &
b0011 '
b10011 )
#775000000
b1011 "
b0100 #
b1011 &
b0100 '
b10100 )
#780000000
b1100 "
b0101 #
b1100 &
b0101 '
b10101 )
#785000000
b1101 "
b0110 #
b1101 &
b0110 '
b10110 )
#790000000
b1110 "
b0111 #
b1110 &
b0111 '
b10111 )
#795000000
b1111 "
b1000 #
b1111 &
b1000 '
b11000 )
#800000000
b1010 !
b0000 "
b1010 #
0$
b1010 %
b0000 &
b1010 '
0(
b01010 )
#805000000
b0001 "
b1011 #
b0001 &
b1011 '
b01011 )
#810000000
b0010 "
b1100 #
b0010 &
b1100 '
b01100 )
#815000000
b0011 "
b1101 #
b0011 &
b1101 '
b01101 )
#820000000
b0100 "
b1110 #
b0100 &
b1110 '
b01110 )
#825000000
b0101 "
b1111 #
b0101 &
b1111 '
b01111 )
#830000000
b0110 "
b0000 #
1$
b0110 &
b0000 '
1(
b10000 )
#835000000
b0111 "
b0001 #
b0111 &
b0001 '
b10001 )
#840000000
b1000 "
b0010 #
b1000 &
b0010 '
b10010 )
#845000000
b1001 "
b0011 #
b1001 &
b0011 '
b10011 )
#850000000
b1010 "
b0100 #
b1010 &
b0100 '
b10100 )
#855000000
b1011 "
b0101 #
b1011 &
b0101 '
b10101 )
#860000000
b1100 "
b0110 #
b1100 &
b0110 '
b10110 )
#865000000
b1101 "
b0111 #
b1101 &
b0111 '
b10111 )
#870000000
b1110 "
b1000 #
b1110 &
b1000 '
b11000 )
#875000000
b1111 "
b1001 #
b1111 &
b1001 '
b11001 )
#880000000
b1011 !
b0000 "
b1011 #
0$
b1011 %
b0000 &
b1011 '
0(
b01011 )
#885000000
b0001 "
b1100 #
b0001 &
b1100 '
b01100 )
#890000000
b0010 "
b1101 #
b0010 &
b1101 '
b01101 )
#895000000
b0011 "
b1110 #
b0011 &
b1110 '
b01110 )
#900000000
b0100 "
b1111 #
b0100 &
b1111 '
b01111 )
#905000000
b0101 "
b0000 #
1$
b0101 &
b0000 '
1(
b10000 )
#910000000
b0110 "
b0001 #
b0110 &
b0001 '
b10001 )
#915000000
b0111 "
b0010 #
b0111 &
b0010 '
b10010 )
#920000000
b1000 "
b0011 #
b1000 &
b0011 '
b10011 )
#925000000
b1001 "
b0100 #
b1001 &
b0100 '
b10100 )
#930000000
b1010 "
b0101 #
b1010 &
b0101 '
b10101 )
#935000000
b1011 "
b0110 #
b1011 &
b0110 '
b10110 )
#940000000
b1100 "
b0111 #
b1100 &
b0111 '
b10111 )
#945000000
b1101 "
b1000 #
b1101 &
b1000 '
b11000 )
#950000000
b1110 "
b1001 #
b1110 &
b1001 '
b11001 )
#955000000
b1111 "
b1010 #
b1111 &
b1010 '
b11010 )
#960000000
b1100 !
b0000 "
b1100 #
0$
b1100 %
b0000 &
b1100 '
0(
b01100 )
#965000000
b0001 "
b1101 #
b0001 &
b1101 '
b01101 )
#970000000
b0010 "
b1110 #
b0010 &
b1110 '
b01110 )
#975000000
b0011 "
b1111 #
b0011 &
b1111 '
b01111 )
#980000000
b0100 "
b0000 #
1$
b0100 &
b0000 '
1(
b10000 )
#985000000
b0101 "
b0001 #
b0101 &
b0001 '
b10001 )
#990000000
b0110 "
b0010 #
b0110 &
b0010 '
b10010 )
#995000000
b0111 "
b0011 #
b0111 &
b0011 '
b10011 )
#1000000000
b1000 "
b0100 #
b1000 &
b0100 '
b10100 )
#1005000000
b1001 "
b0101 #
b1001 &
b0101 '
b10101 )
#1010000000
b1010 "
b0110 #
b1010 &
b0110 '
b10110 )
#1015000000
b1011 "
b0111 #
b1011 &
b0111 '
b10111 )
#1020000000
b1100 "
b1000 #
b1100 &
b1000 '
b11000 )
#1025000000
b1101 "
b1001 #
b1101 &
b1001 '
b11001 )
#1030000000
b1110 "
b1010 #
b1110 &
b1010 '
b11010 )
#1035000000
b1111 "
b1011 #
b1111 &
b1011 '
b11011 )
#1040000000
b1101 !
b0000 "
b1101 #
0$
b1101 %
b0000 &
b1101 '
0(
b01101 )
#1045000000
b0001 "
b1110 #
b0001 &
b1110 '
b01110 )
#1050000000
b0010 "
b1111 #
b0010 &
b1111 '
b01111 )
#1055000000
b0011 "
b0000 #
1$
b0011 &
b0000 '
1(
b10000 )
#1060000000
b0100 "
b0001 #
b0100 &
b0001 '
b10001 )
#1065000000
b0101 "
b0010 #
b0101 &
b0010 '
b10010 )
#1070000000
b0110 "
b0011 #
b0110 &
b0011 '
b10011 )
#1075000000
b0111 "
b0100 #
b0111 &
b0100 '
b10100 )
#1080000000
b1000 "
b0101 #
b1000 &
b0101 '
b10101 )
#1085000000
b1001 "
b0110 #
b1001 &
b0110 '
b10110 )
#1090000000
b1010 "
b0111 #
b1010 &
b0111 '
b10111 )
#1095000000
b1011 "
b1000 #
b1011 &
b1000 '
b11000 )
#1100000000
b1100 "
b1001 #
b1100 &
b1001 '
b11001 )
#1105000000
b1101 "
b1010 #
b1101 &
b1010 '
b11010 )
#1110000000
b1110 "
b1011 #
b1110 &
b1011 '
b11011 )
#1115000000
b1111 "
b1100 #
b1111 &
b1100 '
b11100 )
#1120000000
b1110 !
b0000 "
b1110 #
0$
b1110 %
b0000 &
b1110 '
0(
b01110 )
#1125000000
b0001 "
b1111 #
b0001 &
b1111 '
b01111 )
#1130000000
b0010 "
b0000 #
1$
b0010 &
b0000 '
1(
b10000 )
#1135000000
b0011 "
b0001 #
b0011 &
b0001 '
b10001 )
#1140000000
b0100 "
b0010 #
b0100 &
b0010 '
b10010 )
#1145000000
b0101 "
b0011 #
b0101 &
b0011 '
b10011 )
#1150000000
b0110 "
b0100 #
b0110 &
b0100 '
b10100 )
#1155000000
b0111 "
b0101 #
b0111 &
b0101 '
b10101 )
#1160000000
b1000 "
b0110 #
b1000 &
b0110 '
b10110 )
#1165000000
b1001 "
b0111 #
b1001 &
b0111 '
b10111 )
#1170000000
b1010 "
b1000 #
b1010 &
b1000 '
b11000 )
#1175000000
b1011 "
b1001 #
b1011 &
b1001 '
b11001 )
#1180000000
b1100 "
b1010 #
b1100 &
b1010 '
b11010 )
#1185000000
b1101 "
b1011 #
b1101 &
b1011 '
b11011 )
#1190000000
b1110 "
b1100 #
b1110 &
b1100 '
b11100 )
#1195000000
b1111 "
b1101 #
b1111 &
b1101 '
b11101 )
#1200000000
b1111 !
b0000 "
b1111 #
0$
b1111 %
b0000 &
b1111 '
0(
b01111 )
#1205000000
b0001 "
b0000 #
1$
b0001 &
b0000 '
1(
b10000 )
#1210000000
b0010 "
b0001 #
b0010 &
b0001 '
b10001 )
#1215000000
b0011 "
b0010 #
b0011 &
b0010 '
b10010 )
#1220000000
b0100 "
b0011 #
b0100 &
b0011 '
b10011 )
#1225000000
b0101 "
b0100 #
b0101 &
b0100 '
b10100 )
#1230000000
b0110 "
b0101 #
b0110 &
b0101 '
b10101 )
#1235000000
b0111 "
b0110 #
b0111 &
b0110 '
b10110 )
#1240000000
b1000 "
b0111 #
b1000 &
b0111 '
b10111 )
#1245000000
b1001 "
b1000 #
b1001 &
b1000 '
b11000 )
#1250000000
b1010 "
b1001 #
b1010 &
b1001 '
b11001 )
#1255000000
b1011 "
b1010 #
b1011 &
b1010 '
b11010 )
#1260000000
b1100 "
b1011 #
b1100 &
b1011 '
b11011 )
#1265000000
b1101 "
b1100 #
b1101 &
b1100 '
b11100 )
#1270000000
b1110 "
b1101 #
b1110 &
b1101 '
b11101 )
#1275000000
b1111 "
b1110 #
b1111 &
b1110 '
b11110 )
